<?xml version="1.0" encoding="utf-8"?>
<!-- Generator: Adobe Illustrator 16.0.0, SVG Export Plug-In . SVG Version: 6.00 Build 0)  -->
<!DOCTYPE svg PUBLIC "-//W3C//DTD SVG 1.1//EN" "http://www.w3.org/Graphics/SVG/1.1/DTD/svg11.dtd">
<svg version="1.1" xmlns="http://www.w3.org/2000/svg" xmlns:xlink="http://www.w3.org/1999/xlink" x="0px" y="0px" width="406.8px"
	 height="144px" viewBox="0 0 406.8 144" enable-background="new 0 0 406.8 144" xml:space="preserve">
<g id="background" display="none">
	<rect display="inline" width="406.8" height="144"/>
</g>
<g id="logo">
	<g>
		<g>
			<path fill="#fff" d="M268.308,100.023c-0.938-0.547-2-0.825-3.153-0.825c-1.152,0-2.22,0.277-3.173,0.825
				c-0.955,0.55-1.714,1.312-2.254,2.265c-0.54,0.953-0.813,2.027-0.813,3.193c0,1.161,0.255,2.232,0.756,3.182
				c0.503,0.956,1.206,1.716,2.089,2.258c0.885,0.546,1.884,0.822,2.969,0.822c0.872,0,1.698-0.185,2.456-0.547
				c0.488-0.235,0.935-0.533,1.331-0.892c0.013,0.382,0.149,0.705,0.407,0.963c0.542,0.544,1.496,0.547,2.042,0.001
				c0.272-0.272,0.41-0.616,0.41-1.021v-4.766c0-1.166-0.277-2.241-0.825-3.194C270.003,101.336,269.25,100.575,268.308,100.023z
				 M268.599,105.481c0,0.694-0.151,1.326-0.45,1.879c-0.299,0.551-0.714,0.989-1.234,1.303c-0.528,0.319-1.104,0.475-1.76,0.475
				c-0.647,0-1.239-0.159-1.759-0.475c-0.522-0.314-0.941-0.753-1.247-1.305c-0.305-0.552-0.459-1.183-0.459-1.877
				s0.155-1.33,0.46-1.89c0.304-0.557,0.724-0.999,1.246-1.315c0.52-0.315,1.111-0.475,1.759-0.475c0.656,0,1.231,0.155,1.76,0.475
				c0.528,0.32,0.933,0.75,1.233,1.312C268.448,104.15,268.599,104.787,268.599,105.481z"/>
			<path fill="#fff" d="M278.563,104.1c-0.731-0.151-1.293-0.307-1.671-0.462c-0.423-0.174-0.597-0.325-0.669-0.424
				c-0.099-0.132-0.146-0.3-0.146-0.512c0-0.183,0.051-0.42,0.449-0.631c0.367-0.193,0.857-0.291,1.456-0.291
				c0.528,0,0.98,0.062,1.345,0.186c0.351,0.118,0.691,0.328,1.015,0.625c0.61,0.552,1.479,0.655,2.046,0.245
				c0.324-0.267,0.488-0.578,0.488-0.925c0-0.306-0.119-0.608-0.354-0.899c-0.46-0.567-1.092-1.019-1.878-1.341
				c-0.771-0.313-1.651-0.473-2.619-0.473c-0.791,0-1.549,0.129-2.253,0.384c-0.723,0.261-1.317,0.661-1.767,1.188
				c-0.466,0.545-0.702,1.216-0.702,1.994c0,1.903,1.474,3.152,4.381,3.713c1.004,0.189,1.718,0.42,2.12,0.686
				c0.349,0.23,0.511,0.491,0.511,0.818c0,0.336-0.161,0.59-0.509,0.799c-0.393,0.237-0.97,0.357-1.717,0.357
				c-0.567,0-1.107-0.103-1.604-0.305c-0.49-0.2-0.858-0.434-1.106-0.707c-0.58-0.578-1.261-0.667-2.005-0.117
				c-0.369,0.277-0.563,0.66-0.563,1.105c0,0.35,0.127,0.653,0.378,0.904c0.517,0.517,1.235,0.939,2.138,1.256
				c0.889,0.312,1.847,0.469,2.849,0.469c1.011,0,1.895-0.165,2.628-0.49c0.748-0.332,1.326-0.798,1.716-1.384
				c0.393-0.587,0.592-1.251,0.592-1.974c0-0.983-0.367-1.797-1.091-2.416C281.321,104.881,280.19,104.429,278.563,104.1z"/>
			<path fill="#fff" d="M289.766,104.1c-0.731-0.151-1.293-0.307-1.671-0.462c-0.423-0.174-0.597-0.325-0.669-0.424
				c-0.099-0.132-0.146-0.3-0.146-0.512c0-0.183,0.051-0.42,0.449-0.631c0.367-0.193,0.857-0.291,1.456-0.291
				c0.528,0,0.98,0.062,1.345,0.186c0.351,0.118,0.691,0.328,1.015,0.625c0.61,0.552,1.479,0.655,2.046,0.245
				c0.324-0.267,0.488-0.578,0.488-0.925c0-0.306-0.119-0.608-0.354-0.899c-0.46-0.567-1.092-1.019-1.878-1.341
				c-0.771-0.313-1.651-0.473-2.619-0.473c-0.791,0-1.549,0.129-2.253,0.384c-0.723,0.261-1.317,0.661-1.767,1.188
				c-0.466,0.545-0.702,1.216-0.702,1.994c0,1.903,1.474,3.152,4.381,3.713c1.004,0.189,1.718,0.42,2.12,0.686
				c0.349,0.23,0.511,0.491,0.511,0.818c0,0.336-0.161,0.59-0.509,0.799c-0.393,0.237-0.97,0.357-1.717,0.357
				c-0.567,0-1.107-0.103-1.604-0.305c-0.49-0.2-0.858-0.434-1.106-0.707c-0.58-0.578-1.26-0.667-2.005-0.117
				c-0.369,0.277-0.563,0.66-0.563,1.105c0,0.35,0.127,0.653,0.378,0.904c0.517,0.517,1.235,0.939,2.138,1.256
				c0.889,0.312,1.847,0.469,2.849,0.469c1.011,0,1.895-0.165,2.628-0.49c0.748-0.332,1.326-0.798,1.716-1.384
				c0.393-0.587,0.592-1.251,0.592-1.974c0-0.983-0.367-1.797-1.091-2.416C292.524,104.881,291.393,104.429,289.766,104.1z"/>
			<path fill="#fff" d="M304.691,100c-0.938-0.532-2.012-0.802-3.193-0.802c-1.195,0-2.28,0.27-3.224,0.802
				c-0.948,0.533-1.696,1.286-2.226,2.236c-0.524,0.944-0.791,2.036-0.791,3.245c0,1.193,0.267,2.277,0.791,3.222
				c0.527,0.949,1.276,1.702,2.226,2.236c0.946,0.533,2.03,0.804,3.224,0.804s2.275-0.271,3.215-0.804
				c0.941-0.535,1.686-1.287,2.213-2.236c0.525-0.946,0.792-2.03,0.792-3.222c0-1.207-0.271-2.3-0.804-3.247
				C306.378,101.286,305.63,100.534,304.691,100z M299.714,108.674c-0.52-0.309-0.934-0.743-1.231-1.292
				c-0.299-0.551-0.45-1.19-0.45-1.9c0-0.721,0.147-1.347,0.451-1.914c0.3-0.562,0.703-0.987,1.23-1.302
				c0.521-0.308,1.12-0.464,1.783-0.464s1.263,0.156,1.782,0.464c0.527,0.313,0.927,0.738,1.221,1.299
				c0.293,0.562,0.441,1.206,0.441,1.917c0,0.71-0.148,1.351-0.44,1.903c-0.291,0.548-0.702,0.981-1.221,1.289
				C302.24,109.289,300.755,109.289,299.714,108.674z"/>
			<path fill="#fff" d="M314.903,101.802c0.496,0,0.937,0.081,1.311,0.24c0.374,0.158,0.727,0.415,1.044,0.757
				c0.294,0.331,0.66,0.499,1.087,0.499c0.255,0,0.485-0.071,0.683-0.209c0.513-0.348,0.62-0.775,0.62-1.072
				c0-0.294-0.104-0.564-0.297-0.777c-1.174-1.354-2.67-2.041-4.447-2.041c-1.168,0-2.231,0.271-3.162,0.803
				c-0.934,0.535-1.672,1.292-2.192,2.25c-0.517,0.95-0.779,2.037-0.779,3.23c0,1.165,0.27,2.238,0.802,3.189
				c0.534,0.956,1.286,1.716,2.234,2.256c0.946,0.542,2.024,0.816,3.204,0.816c1.62,0,2.993-0.513,4.088-1.532
				c0.233-0.232,0.357-0.515,0.357-0.817c0-0.269-0.092-0.665-0.542-1.041c-0.509-0.382-1.135-0.351-1.77,0.116
				c-0.539,0.45-1.237,0.669-2.134,0.669c-0.677,0-1.284-0.156-1.805-0.464c-0.519-0.308-0.929-0.741-1.219-1.289
				c-0.293-0.553-0.441-1.193-0.441-1.903c0-1.134,0.306-2.013,0.934-2.688C313.102,102.126,313.895,101.802,314.903,101.802z"/>
			<path fill="#fff" d="M321.45,95.075c-0.343,0.342-0.517,0.757-0.517,1.234c0,0.476,0.174,0.891,0.517,1.234
				c0.342,0.342,0.758,0.516,1.234,0.516c0.476,0,0.891-0.174,1.235-0.517c0.342-0.344,0.515-0.759,0.515-1.233
				c0-0.477-0.174-0.893-0.516-1.234C323.228,94.387,322.136,94.388,321.45,95.075z"/>
			<path fill="#fff" d="M321.668,99.678c-0.275,0.265-0.415,0.613-0.415,1.036v9.514c0,0.404,0.138,0.747,0.409,1.019
				c0.271,0.272,0.615,0.411,1.021,0.411c0.421,0,0.77-0.14,1.036-0.415c0.261-0.271,0.394-0.612,0.394-1.015v-9.514
				c0-0.42-0.134-0.767-0.399-1.032C323.191,99.162,322.221,99.145,321.668,99.678z"/>
			<path fill="#fff" d="M335.051,100.023c-0.938-0.547-2-0.825-3.153-0.825c-1.152,0-2.22,0.277-3.173,0.825
				c-0.955,0.55-1.714,1.312-2.254,2.265c-0.54,0.953-0.813,2.027-0.813,3.193c0,1.161,0.255,2.232,0.756,3.182
				c0.503,0.956,1.206,1.716,2.089,2.258c0.885,0.546,1.884,0.822,2.969,0.822c0.872,0,1.698-0.185,2.456-0.547
				c0.488-0.235,0.935-0.533,1.331-0.892c0.013,0.382,0.149,0.705,0.407,0.963c0.541,0.544,1.496,0.547,2.042,0.001
				c0.272-0.272,0.41-0.616,0.41-1.021v-4.766c0-1.166-0.277-2.241-0.825-3.194C336.747,101.336,335.993,100.575,335.051,100.023z
				 M335.342,105.481c0,0.694-0.151,1.326-0.45,1.879c-0.299,0.551-0.714,0.989-1.234,1.303c-0.528,0.319-1.104,0.475-1.76,0.475
				c-0.647,0-1.239-0.159-1.759-0.475c-0.522-0.314-0.941-0.753-1.247-1.305c-0.305-0.552-0.459-1.183-0.459-1.877
				s0.155-1.33,0.46-1.89c0.304-0.557,0.724-0.999,1.246-1.315c0.52-0.315,1.111-0.475,1.759-0.475c0.656,0,1.231,0.155,1.76,0.475
				c0.528,0.32,0.933,0.75,1.233,1.312C335.191,104.15,335.342,104.787,335.342,105.481z"/>
			<path fill="#fff" d="M345.067,108.839h-0.727c-0.353,0-0.645-0.147-0.892-0.451c-0.265-0.324-0.394-0.724-0.394-1.219v-4.939
				h1.478c0.386,0,0.708-0.117,0.956-0.347c0.254-0.233,0.389-0.541,0.389-0.892c0-0.378-0.135-0.701-0.388-0.933
				c-0.249-0.231-0.571-0.349-0.957-0.349h-1.478v-2.738c0-0.406-0.135-0.746-0.399-1.01c-0.529-0.529-1.49-0.529-2.02,0
				c-0.265,0.265-0.398,0.604-0.398,1.01v2.738h-0.644c-0.387,0-0.709,0.117-0.958,0.348c-0.253,0.233-0.387,0.556-0.387,0.934
				c0,0.35,0.134,0.657,0.387,0.89c0.249,0.231,0.571,0.349,0.958,0.349h0.644v4.939c0,0.838,0.179,1.603,0.53,2.274
				c0.355,0.68,0.853,1.224,1.478,1.616c0.629,0.396,1.334,0.598,2.095,0.598h0.385c0.451,0,0.83-0.128,1.129-0.381
				c0.312-0.267,0.472-0.613,0.472-1.029c0-0.396-0.118-0.73-0.354-0.996C345.727,108.978,345.422,108.839,345.067,108.839z"/>
			<path fill="#fff" d="M348.194,95.075c-0.343,0.342-0.517,0.757-0.517,1.234c0,0.476,0.174,0.891,0.517,1.234
				c0.342,0.342,0.758,0.516,1.234,0.516c0.476,0,0.891-0.174,1.235-0.517c0.342-0.344,0.515-0.759,0.515-1.233
				c0-0.477-0.174-0.893-0.516-1.234C349.972,94.387,348.88,94.388,348.194,95.075z"/>
			<path fill="#fff" d="M348.413,99.678c-0.275,0.265-0.415,0.613-0.415,1.036v9.514c0,0.404,0.138,0.747,0.409,1.019
				c0.271,0.272,0.615,0.411,1.021,0.411c0.421,0,0.77-0.14,1.036-0.415c0.261-0.271,0.394-0.612,0.394-1.015v-9.514
				c0-0.42-0.134-0.767-0.399-1.032C349.934,99.162,348.965,99.145,348.413,99.678z"/>
			<path fill="#fff" d="M362.07,100c-0.938-0.532-2.012-0.802-3.193-0.802c-1.195,0-2.28,0.27-3.224,0.802
				c-0.948,0.533-1.696,1.286-2.226,2.236c-0.524,0.944-0.791,2.036-0.791,3.245c0,1.193,0.267,2.277,0.791,3.222
				c0.527,0.949,1.276,1.702,2.226,2.236c0.946,0.533,2.03,0.804,3.224,0.804s2.275-0.271,3.215-0.804
				c0.941-0.535,1.686-1.287,2.213-2.236c0.525-0.946,0.792-2.03,0.792-3.222c0-1.207-0.271-2.3-0.804-3.247
				C363.757,101.286,363.009,100.534,362.07,100z M357.093,108.674c-0.52-0.309-0.934-0.743-1.231-1.292
				c-0.299-0.551-0.45-1.19-0.45-1.9c0-0.721,0.147-1.347,0.451-1.914c0.3-0.562,0.703-0.987,1.23-1.302
				c0.521-0.308,1.12-0.464,1.783-0.464s1.263,0.156,1.782,0.464c0.527,0.313,0.927,0.738,1.221,1.299
				c0.293,0.562,0.441,1.206,0.441,1.917c0,0.71-0.148,1.351-0.44,1.903c-0.291,0.548-0.702,0.981-1.221,1.289
				C359.619,109.289,358.134,109.289,357.093,108.674z"/>
			<path fill="#fff" d="M377.732,101.867c-0.472-0.875-1.136-1.551-1.975-2.008c-0.829-0.453-1.775-0.683-2.813-0.683
				c-0.751,0-1.469,0.134-2.136,0.397c-0.444,0.177-0.853,0.406-1.22,0.683c-0.063-0.221-0.177-0.413-0.339-0.575
				c-0.523-0.52-1.493-0.537-2.046-0.004c-0.275,0.265-0.415,0.613-0.415,1.036v9.533c0,0.405,0.138,0.749,0.409,1.021
				c0.553,0.555,1.533,0.537,2.058-0.004c0.261-0.271,0.394-0.613,0.394-1.017v-6.027c0-0.448,0.117-0.842,0.358-1.2
				c0.244-0.362,0.589-0.654,1.023-0.868c0.442-0.218,0.942-0.328,1.485-0.328c0.945,0,1.676,0.259,2.234,0.793
				c0.548,0.522,0.825,1.321,0.825,2.373v5.258c0,0.406,0.138,0.75,0.409,1.021c0.272,0.272,0.615,0.41,1.021,0.41
				s0.748-0.138,1.021-0.41s0.41-0.616,0.41-1.021v-5.258C378.436,103.785,378.199,102.735,377.732,101.867z"/>
		</g>
		<path fill="#FFFFFF" d="M249.439,51.362c-3.094-1.758-6.634-2.648-10.526-2.648c-3.935,0-7.515,0.89-10.626,2.648
			c-3.131,1.763-5.594,4.239-7.331,7.364c-1.732,3.115-2.609,6.708-2.609,10.694c0,3.936,0.877,7.506,2.609,10.621
			c1.737,3.131,4.208,5.605,7.331,7.367c3.111,1.752,6.691,2.645,10.626,2.645c3.94,0,7.505-0.893,10.594-2.646
			c3.096-1.76,5.551-4.234,7.293-7.365c1.729-3.115,2.604-6.686,2.604-10.621c0-3.986-0.887-7.582-2.645-10.697
			C255,55.601,252.54,53.125,249.439,51.362z M238.913,81.657c-2.216,0-4.22-0.52-5.967-1.559c-1.746-1.033-3.137-2.486-4.128-4.326
			c-1.001-1.846-1.505-3.982-1.505-6.352c0-2.373,0.509-4.524,1.509-6.397c0.992-1.856,2.378-3.324,4.124-4.355
			c1.747-1.034,3.751-1.558,5.967-1.558c2.214,0,4.221,0.524,5.964,1.558c1.744,1.032,3.12,2.494,4.086,4.347
			c0.981,1.879,1.48,4.033,1.48,6.406c0,2.369-0.497,4.51-1.48,6.363c-0.966,1.83-2.339,3.281-4.086,4.314
			C243.133,81.138,241.126,81.657,238.913,81.657z"/>
		<path fill="#FFFFFF" d="M313.245,52.986c-0.908-0.726-1.889-1.366-2.941-1.907c-1.704-0.893-3.613-1.53-5.69-1.944
			c-1.273-0.25-2.616-0.417-4.028-0.488c-2.526,0.007-4.849,0.531-6.876,1.558c-1.062,0.536-2.017,1.204-2.889,1.977
			c-0.866-0.773-1.83-1.44-2.885-1.977c-2.038-1.027-4.354-1.551-6.881-1.558c-0.021,0-0.042-0.002-0.056-0.002
			c-1.381,0-2.706,0.174-3.972,0.49c-2.075,0.415-3.979,1.052-5.694,1.944c-1.049,0.542-2.026,1.182-2.938,1.907
			c-3.622,2.895-5.452,6.952-5.452,12.05v20.426c0,1.312,0.571,2.428,1.71,3.312c0.568,0.438,1.223,0.768,1.951,0.994
			c0.281,0.045,0.562,0.076,0.859,0.076c1.366,0,2.489-0.455,3.344-1.34c0.85-0.871,1.279-1.979,1.279-3.289V65.242
			c0-2.406,0.688-4.315,2.102-5.833c1.394-1.496,3.158-2.225,5.389-2.225c0.812,0,1.535,0.119,2.211,0.301
			c1.102,0.3,2.059,0.817,2.843,1.624c1.239,1.287,1.874,3.254,1.874,5.845v20.262c0,1.312,0.445,2.426,1.319,3.303
			c0.736,0.734,1.647,1.154,2.688,1.27v0.057c0.109,0,0.199-0.023,0.308-0.031c0.102,0.008,0.193,0.031,0.303,0.031v-0.057
			c1.054-0.115,1.959-0.535,2.693-1.27c0.877-0.877,1.316-1.99,1.316-3.303V64.954c0-2.591,0.638-4.559,1.882-5.845
			c0.775-0.807,1.729-1.324,2.843-1.624c0.674-0.183,1.393-0.301,2.207-0.301c2.23,0,3.99,0.729,5.387,2.225
			c1.416,1.518,2.104,3.427,2.104,5.833v19.974c0,1.311,0.43,2.418,1.275,3.289c0.86,0.885,1.979,1.34,3.35,1.34
			c0.294,0,0.574-0.031,0.85-0.076c0.736-0.227,1.395-0.557,1.961-0.994c1.133-0.885,1.712-2,1.712-3.312V65.036
			C318.702,59.938,316.863,55.881,313.245,52.986z"/>
		<path fill="#FFFFFF" d="M372.946,52.986c-0.902-0.726-1.883-1.366-2.934-1.907c-1.714-0.893-3.618-1.53-5.689-1.944
			c-1.28-0.25-2.622-0.417-4.034-0.488c-2.528,0.007-4.84,0.531-6.873,1.558c-1.062,0.536-2.019,1.204-2.891,1.977
			c-0.872-0.773-1.831-1.44-2.886-1.977c-2.035-1.027-4.35-1.551-6.883-1.558c-1.409,0.071-2.749,0.237-4.026,0.488
			c-2.079,0.415-3.978,1.052-5.69,1.944c-1.055,0.542-2.03,1.182-2.941,1.907c-3.615,2.895-5.456,6.952-5.456,12.05v20.426
			c0,1.312,0.578,2.428,1.712,3.312c0.572,0.438,1.221,0.768,1.962,0.994c0.271,0.045,0.555,0.076,0.854,0.076
			c1.363,0,2.489-0.455,3.344-1.34c0.849-0.871,1.274-1.979,1.274-3.289V65.242c0-2.406,0.688-4.315,2.102-5.833
			c1.396-1.496,3.161-2.225,5.392-2.225c0.811,0,1.53,0.119,2.21,0.301c1.104,0.3,2.059,0.817,2.84,1.624
			c1.247,1.287,1.876,3.254,1.876,5.845v20.262c0,1.312,0.445,2.426,1.323,3.303c0.738,0.734,1.646,1.154,2.688,1.27v0.057
			c0.109,0,0.202-0.023,0.306-0.031c0.104,0.008,0.199,0.031,0.306,0.031v-0.057c1.042-0.115,1.95-0.535,2.686-1.27
			c0.881-0.877,1.326-1.99,1.326-3.303V64.954c0-2.591,0.629-4.559,1.881-5.845c0.776-0.807,1.729-1.324,2.837-1.624
			c0.678-0.183,1.394-0.301,2.206-0.301c2.235,0,3.998,0.729,5.391,2.225c1.417,1.518,2.102,3.427,2.102,5.833v19.974
			c0,1.311,0.429,2.418,1.28,3.289c0.852,0.885,1.978,1.34,3.345,1.34c0.299,0,0.577-0.031,0.855-0.076
			c0.733-0.227,1.386-0.557,1.954-0.994c1.136-0.885,1.716-2,1.716-3.312V65.036C378.409,59.938,376.57,55.881,372.946,52.986z"/>
		<g>
			<g>
				<path fill="#FFFFFF" d="M256.787,58.658c-1.76-3.131-4.23-5.615-7.338-7.377c-3.099-1.762-6.649-2.652-10.544-2.652
					c-3.942,0-7.53,0.89-10.648,2.645c-3.133,1.77-5.602,4.254-7.344,7.385c-1.731,3.112-2.612,6.721-2.612,10.714
					c0,3.943,0.881,7.521,2.612,10.639c1.745,3.137,4.214,5.623,7.344,7.383c3.118,1.76,6.706,2.65,10.648,2.65
					c3.943,0,7.517-0.891,10.614-2.654c3.105-1.762,5.562-4.242,7.304-7.379c1.734-3.117,2.615-6.695,2.615-10.639
					C259.438,65.379,258.544,61.771,256.787,58.658z M238.905,81.634c-2.218,0-4.23-0.527-5.98-1.566
					c-1.744-1.033-3.141-2.49-4.131-4.332c-1.002-1.85-1.514-3.988-1.514-6.363c0-2.379,0.512-4.534,1.515-6.407
					c0.994-1.867,2.386-3.328,4.13-4.362c1.748-1.04,3.759-1.562,5.98-1.562c2.216,0,4.229,0.522,5.979,1.562
					c1.742,1.035,3.117,2.496,4.091,4.354c0.984,1.876,1.479,4.036,1.479,6.415c0,2.375-0.495,4.518-1.474,6.377
					c-0.975,1.83-2.351,3.285-4.097,4.318C243.131,81.106,241.121,81.634,238.905,81.634z"/>
			</g>
		</g>
		<path fill="#FFFFFF" d="M209.915,77.22c-3.969,2.975-8.156,4.484-12.452,4.484c-3.488,0-6.734-0.926-9.65-2.754
			c-2.943-1.842-5.308-4.371-7.032-7.512c-1.729-3.143-2.607-6.658-2.607-10.444c0-3.738,0.878-7.24,2.607-10.411
			c1.729-3.164,4.089-5.701,7.032-7.541c2.918-1.828,6.165-2.759,9.65-2.759c2.789,0,5.069,0.351,6.789,1.032
			c1.733,0.688,3.547,1.836,5.417,3.429c1.892,1.538,4.437,1.527,6.174-0.032c0.9-0.81,1.366-1.852,1.366-3.093
			c0-0.741-0.124-1.411-0.361-1.99c-0.267-0.62-0.758-1.202-1.432-1.705c-2.774-2.24-5.56-3.871-8.281-4.85
			c-2.723-0.984-5.978-1.482-9.672-1.482c-5.228,0-10.078,1.326-14.402,3.943c-4.319,2.612-7.773,6.201-10.265,10.667
			c-2.486,4.461-3.75,9.44-3.75,14.794c0,5.402,1.264,10.414,3.75,14.901c2.491,4.492,5.945,8.076,10.27,10.668
			c4.319,2.594,9.165,3.908,14.397,3.908c6.684,0,12.748-2.154,18.102-6.477c0.949-0.947,1.434-2.07,1.434-3.338
			c0-1.299-0.389-2.375-1.161-3.209C214.406,75.905,212.144,75.647,209.915,77.22z"/>
		<g>
			<path fill="#fff" d="M104.094,49.963c-0.152,0.281-0.299,0.569-0.466,0.843c-1.497,2.39-3.516,4.24-5.799,5.547
				c2.555,4.403,3.958,9.451,3.958,14.638c0,2.014-0.207,4.018-0.617,5.971c-0.49,2.348,1.023,4.656,3.376,5.146
				c0.299,0.062,0.595,0.09,0.888,0.09c2.018,0,3.829-1.412,4.259-3.463c0.525-2.531,0.794-5.139,0.794-7.744
				C110.487,63.448,108.204,56.129,104.094,49.963z"/>
			<g>
				<path fill="#fff" d="M53.785,70.966l0.323,3.098l0.041,0.307c1.634,8.666,9.23,14.957,18.056,14.957
					c10.126,0,18.37-8.244,18.37-18.369c0-10.13-8.244-18.375-18.37-18.375c-2.245,0-4.066,1.821-4.066,4.072
					c0,2.246,1.821,4.066,4.066,4.066c5.643,0,10.231,4.593,10.231,10.236c0,5.643-4.589,10.23-10.231,10.23
					c-4.87,0-9.063-3.432-10.029-8.184l-0.25-2.262l0.022-27.028c3.365-1.312,6.911-1.985,10.575-1.985
					c2.483,0,4.924,0.326,7.278,0.934c0.035,0.54,0.106,1.085,0.232,1.623c0.598,2.567,2.16,4.751,4.393,6.137
					c1.566,0.984,3.364,1.492,5.21,1.492c3.427,0,6.552-1.73,8.353-4.623c1.403-2.23,1.849-4.878,1.255-7.449
					c-0.598-2.57-2.147-4.752-4.37-6.146c-1.575-0.979-3.384-1.495-5.229-1.495c-2.408,0-4.65,0.865-6.408,2.373
					c-3.444-1.019-7.035-1.548-10.713-1.548c-4.845,0-9.538,0.908-13.974,2.671c-0.81,0.323-1.611,0.665-2.403,1.044
					c-1.233,0.591-2.281,1.876-2.336,2.925c-0.062,1.049,0,2.064,0,2.064L53.785,70.966z M86.948,40.39
					c0.582-0.928,1.591-1.484,2.696-1.484c0.594,0,1.173,0.167,1.676,0.478c0.706,0.445,1.196,1.144,1.392,1.971
					c0.189,0.827,0.048,1.671-0.402,2.389c-0.88,1.414-2.893,1.895-4.335,0.997c-0.718-0.451-1.221-1.148-1.415-1.975
					C86.367,41.944,86.505,41.103,86.948,40.39z"/>
				<path fill="#fff" d="M94.256,92.265c-0.94-0.59-2.896-1.582-5.396-1.582c-1.594,0-3.15,0.398-4.628,1.172
					c-2.299,1.213-3.995,3.27-4.774,5.787c-0.186,0.609-0.313,1.23-0.379,1.857c-2.14,0.49-4.337,0.758-6.556,0.758
					c-13.458,0-24.823-9.143-28.222-21.535c0.384-0.275,0.73-0.566,1.026-0.838c1.968-1.842,3.02-4.139,3.118-6.811
					c0.2-5.208-3.224-7.937-4.722-8.87c-1.429-0.893-2.991-1.353-4.762-1.401l-0.354-0.005c-5.364,0-9.701,4.193-9.873,9.542
					c-0.116,3.568,1.642,6.838,4.722,8.768c0.721,0.449,1.459,0.787,2.215,1.016c4.103,16.539,19.062,28.832,36.851,28.832
					c3.24,0,6.441-0.426,9.55-1.23c0.455,0.445,0.938,0.848,1.486,1.186c1.141,0.707,2.986,1.551,5.316,1.551
					c1.57,0,3.104-0.391,4.552-1.16c2.999-1.473,4.324-3.969,4.931-5.863c1.139-3.822-0.245-6.52-0.729-7.463
					C96.762,94.325,95.677,93.136,94.256,92.265z M40.743,72.991c-0.784,0.73-1.475,0.824-1.992,0.824l-0.372-0.01
					c-0.579-0.01-0.931-0.111-1.381-0.389c-0.743-0.465-1.613-1.336-1.565-2.861c0.059-1.686,1.482-3.06,3.177-3.06l0.142,0.009
					c0.7,0.014,1.087,0.167,1.424,0.379c1.087,0.688,1.618,1.674,1.57,2.94C41.724,71.3,41.699,72.097,40.743,72.991z
					 M91.956,101.462c-0.374,1.162-1.002,1.594-1.51,1.84l-0.127,0.064c-1.284,0.693-2.698,0.174-3.225-0.154
					c-0.28-0.17-0.621-0.445-1.004-1.182c-0.395-0.748-0.475-1.604-0.22-2.422c0.24-0.797,0.767-1.441,1.484-1.82
					c0.511-0.27,1.007-0.4,1.505-0.4c0.857,0,1.567,0.391,1.861,0.568c0.339,0.213,0.633,0.479,0.977,1.137
					C91.935,99.562,92.304,100.28,91.956,101.462z"/>
			</g>
		</g>
		<path fill="#FFFFFF" d="M156.474,51.332c-2.921-1.795-6.214-2.704-9.796-2.704c-2.887,0-5.612,0.604-8.104,1.801
			c-1.691,0.813-3.224,1.856-4.582,3.113v-16.61c0-1.366-0.453-2.494-1.341-3.356c-0.88-0.847-1.984-1.28-3.292-1.28
			c-1.363,0-2.486,0.435-3.343,1.295c-0.853,0.853-1.29,1.98-1.29,3.341V69.3c0,3.854,0.918,7.398,2.726,10.549
			c1.812,3.145,4.3,5.66,7.395,7.463c3.096,1.814,6.603,2.732,10.412,2.732c3.803,0,7.328-0.918,10.474-2.727
			c3.151-1.809,5.655-4.324,7.44-7.477c1.785-3.146,2.686-6.693,2.686-10.541c0-3.839-0.837-7.379-2.491-10.515
			C161.702,55.631,159.385,53.12,156.474,51.332z M139.361,80.036c-1.752-1.057-3.143-2.539-4.142-4.398
			c-1.004-1.877-1.508-4.007-1.508-6.338c0-2.324,0.504-4.446,1.508-6.294c0.994-1.847,2.388-3.315,4.142-4.375
			c1.745-1.055,3.733-1.59,5.898-1.59c2.164,0,4.151,0.536,5.896,1.59c1.761,1.064,3.164,2.537,4.186,4.38
			c1.02,1.85,1.543,3.967,1.543,6.29c0,2.326-0.523,4.453-1.548,6.328c-1.017,1.865-2.425,3.352-4.181,4.408
			C147.667,82.157,142.852,82.157,139.361,80.036z"/>
	</g>
</g>
</svg>
